QuartusFiles/simulation/qsim/ProjetoSD1.msim.vcd
$comment
	File created using the following command:
		vcd file ProjetoSD1.msim.vcd -direction
$end
$date
	Thu Jun 26 10:13:23 2025
$end
$version
	ModelSim Version 2020.1
$end
$timescale
	1ps
$end

$scope module complemento2_vlg_vec_tst $end
$var reg 5 ! b [4:0] $end
$var wire 1 " S [5] $end
$var wire 1 # S [4] $end
$var wire 1 $ S [3] $end
$var wire 1 % S [2] $end
$var wire 1 & S [1] $end
$var wire 1 ' S [0] $end

$scope module i1 $end
$var wire 1 ( gnd $end
$var wire 1 ) vcc $end
$var wire 1 * unknown $end
$var tri1 1 + devclrn $end
$var tri1 1 , devpor $end
$var tri1 1 - devoe $end
$var wire 1 . S[5]~output_o $end
$var wire 1 / S[4]~output_o $end
$var wire 1 0 S[3]~output_o $end
$var wire 1 1 S[2]~output_o $end
$var wire 1 2 S[1]~output_o $end
$var wire 1 3 S[0]~output_o $end
$var wire 1 4 b[4]~input_o $end
$var wire 1 5 b[2]~input_o $end
$var wire 1 6 b[3]~input_o $end
$var wire 1 7 b[0]~input_o $end
$var wire 1 8 b[1]~input_o $end
$var wire 1 9 inst12~0_combout $end
$var wire 1 : inst12~1_combout $end
$var wire 1 ; inst8~combout $end
$var wire 1 < inst7~combout $end
$var wire 1 = inst6~combout $end
$upscope $end
$upscope $end
$enddefinitions $end
#0
$dumpvars
b0 !
0'
0&
0%
0$
0#
0"
0(
1)
x*
1+
1,
1-
0.
0/
00
01
02
03
04
05
06
07
08
09
0:
0;
0<
0=
$end
#10000
b1 !
17
13
19
1'
1=
1<
1;
10
11
12
1&
1%
1$
1:
1.
1"
#20000
b11 !
b10 !
18
07
03
0'
#30000
b11 !
17
13
1'
0=
02
0&
#40000
b111 !
b101 !
b100 !
08
15
07
03
0'
#50000
b101 !
17
13
1'
1=
0<
01
12
1&
0%
#60000
b111 !
b110 !
18
07
03
0'
#70000
b111 !
17
13
1'
0=
02
0&
#80000
b1111 !
b1011 !
b1001 !
b1000 !
08
05
16
07
03
0'
#90000
b1001 !
17
13
1'
1=
1<
0;
00
11
12
1&
1%
0$
#100000
b1011 !
b1010 !
18
07
03
0'
#110000
b1011 !
17
13
1'
0=
02
0&
#120000
b1111 !
b1101 !
b1100 !
08
15
07
03
0'
#130000
b1101 !
17
13
1'
1=
0<
01
12
1&
0%
#140000
b1111 !
b1110 !
18
07
03
0'
#150000
b1111 !
17
13
1'
0=
02
0&
#160000
b11111 !
b10111 !
b10011 !
b10001 !
b10000 !
08
05
06
14
07
03
09
0'
0:
0.
0"
#170000
b10001 !
17
13
19
1'
1=
1<
1;
10
11
12
1&
1%
1$
#180000
b10011 !
b10010 !
18
07
03
0'
#190000
b10011 !
17
13
1'
0=
02
0&
#200000
b10111 !
b10101 !
b10100 !
08
15
07
03
0'
#210000
b10101 !
17
13
1'
1=
0<
01
12
1&
0%
#220000
b10111 !
b10110 !
18
07
03
0'
#230000
b10111 !
17
13
1'
0=
02
0&
#240000
b11111 !
b11011 !
b11001 !
b11000 !
08
05
16
07
03
0'
#250000
b11001 !
17
13
1'
1=
1<
0;
00
11
12
1&
1%
0$
#260000
b11011 !
b11010 !
18
07
03
0'
#270000
b11011 !
17
13
1'
0=
02
0&
#280000
b11111 !
b11101 !
b11100 !
08
15
07
03
0'
#290000
b11101 !
17
13
1'
1=
0<
01
12
1&
0%
#300000
b11111 !
b11110 !
18
07
03
0'
#310000
b11111 !
17
13
1'
0=
02
0&
#320000
b1111 !
b111 !
b11 !
b1 !
b0 !
08
05
06
04
07
03
09
0'
1:
1.
1"
0:
0.
0"
#330000
b1 !
17
13
19
1'
1=
1<
1;
10
11
12
1&
1%
1$
1:
1.
1"
#340000
b11 !
b10 !
18
07
03
0'
#350000
b11 !
17
13
1'
0=
02
0&
#360000
b111 !
b101 !
b100 !
08
15
07
03
0'
#370000
b101 !
17
13
1'
1=
0<
01
12
1&
0%
#380000
b111 !
b110 !
18
07
03
0'
#390000
b111 !
17
13
1'
0=
02
0&
#400000
b1111 !
b1011 !
b1001 !
b1000 !
08
05
16
07
03
0'
#410000
b1001 !
17
13
1'
1=
1<
0;
00
11
12
1&
1%
0$
#420000
b1011 !
b1010 !
18
07
03
0'
#430000
b1011 !
17
13
1'
0=
02
0&
#440000
b1111 !
b1101 !
b1100 !
08
15
07
03
0'
#450000
b1101 !
17
13
1'
1=
0<
01
12
1&
0%
#460000
b1111 !
b1110 !
18
07
03
0'
#470000
b1111 !
17
13
1'
0=
02
0&
#480000
b11111 !
b10111 !
b10011 !
b10001 !
b10000 !
08
05
06
14
07
03
09
0'
0:
0.
0"
#490000
b10001 !
17
13
19
1'
1=
1<
1;
10
11
12
1&
1%
1$
#500000
b10011 !
b10010 !
18
07
03
0'
#510000
b10011 !
17
13
1'
0=
02
0&
#520000
b10111 !
b10101 !
b10100 !
08
15
07
03
0'
#530000
b10101 !
17
13
1'
1=
0<
01
12
1&
0%
#540000
b10111 !
b10110 !
18
07
03
0'
#550000
b10111 !
17
13
1'
0=
02
0&
#560000
b11111 !
b11011 !
b11001 !
b11000 !
08
05
16
07
03
0'
#570000
b11001 !
17
13
1'
1=
1<
0;
00
11
12
1&
1%
0$
#580000
b11011 !
b11010 !
18
07
03
0'
#590000
b11011 !
17
13
1'
0=
02
0&
#600000
b11111 !
b11101 !
b11100 !
08
15
07
03
0'
#610000
b11101 !
17
13
1'
1=
0<
01
12
1&
0%
#620000
b11111 !
b11110 !
18
07
03
0'
#630000
b11111 !
17
13
1'
0=
02
0&
#640000
b1111 !
b111 !
b11 !
b1 !
b0 !
08
05
06
04
07
03
09
0'
1:
1.
1"
0:
0.
0"
#650000
b1 !
17
13
19
1'
1=
1<
1;
10
11
12
1&
1%
1$
1:
1.
1"
#660000
b11 !
b10 !
18
07
03
0'
#670000
b11 !
17
13
1'
0=
02
0&
#680000
b111 !
b101 !
b100 !
08
15
07
03
0'
#690000
b101 !
17
13
1'
1=
0<
01
12
1&
0%
#700000
b111 !
b110 !
18
07
03
0'
#710000
b111 !
17
13
1'
0=
02
0&
#720000
b1111 !
b1011 !
b1001 !
b1000 !
08
05
16
07
03
0'
#730000
b1001 !
17
13
1'
1=
1<
0;
00
11
12
1&
1%
0$
#740000
b1011 !
b1010 !
18
07
03
0'
#750000
b1011 !
17
13
1'
0=
02
0&
#760000
b1111 !
b1101 !
b1100 !
08
15
07
03
0'
#770000
b1101 !
17
13
1'
1=
0<
01
12
1&
0%
#780000
b1111 !
b1110 !
18
07
03
0'
#790000
b1111 !
17
13
1'
0=
02
0&
#800000
b11111 !
b10111 !
b10011 !
b10001 !
b10000 !
08
05
06
14
07
03
09
0'
0:
0.
0"
#810000
b10001 !
17
13
19
1'
1=
1<
1;
10
11
12
1&
1%
1$
#820000
b10011 !
b10010 !
18
07
03
0'
#830000
b10011 !
17
13
1'
0=
02
0&
#840000
b10111 !
b10101 !
b10100 !
08
15
07
03
0'
#850000
b10101 !
17
13
1'
1=
0<
01
12
1&
0%
#860000
b10111 !
b10110 !
18
07
03
0'
#870000
b10111 !
17
13
1'
0=
02
0&
#880000
b11111 !
b11011 !
b11001 !
b11000 !
08
05
16
07
03
0'
#890000
b11001 !
17
13
1'
1=
1<
0;
00
11
12
1&
1%
0$
#900000
b11011 !
b11010 !
18
07
03
0'
#910000
b11011 !
17
13
1'
0=
02
0&
#920000
b11111 !
b11101 !
b11100 !
08
15
07
03
0'
#930000
b11101 !
17
13
1'
1=
0<
01
12
1&
0%
#940000
b11111 !
b11110 !
18
07
03
0'
#950000
b11111 !
17
13
1'
0=
02
0&
#960000
b1111 !
b111 !
b11 !
b1 !
b0 !
08
05
06
04
07
03
09
0'
1:
1.
1"
0:
0.
0"
#970000
b1 !
17
13
19
1'
1=
1<
1;
10
11
12
1&
1%
1$
1:
1.
1"
#980000
b11 !
b10 !
18
07
03
0'
#990000
b11 !
17
13
1'
0=
02
0&
