ProjetoSD1/Circuitos/CompMagnitude/simulation/qsim/ProjetoSD1.msim.vcd
$comment
	File created using the following command:
		vcd file ProjetoSD1.msim.vcd -direction
$end
$date
	Wed Jun 25 22:19:55 2025
$end
$version
	ModelSim Version 2020.1
$end
$timescale
	1ps
$end

$scope module M_B_vlg_vec_tst $end
$var reg 5 ! A [4:0] $end
$var reg 5 " B [4:0] $end
$var wire 1 # B_MAIORQUE_A $end

$scope module i1 $end
$var wire 1 $ gnd $end
$var wire 1 % vcc $end
$var wire 1 & unknown $end
$var tri1 1 ' devclrn $end
$var tri1 1 ( devpor $end
$var tri1 1 ) devoe $end
$var wire 1 * B_MAIORQUE_A~output_o $end
$var wire 1 + B[4]~input_o $end
$var wire 1 , B[3]~input_o $end
$var wire 1 - B[2]~input_o $end
$var wire 1 . A[3]~input_o $end
$var wire 1 / A[2]~input_o $end
$var wire 1 0 inst1~2_combout $end
$var wire 1 1 B[1]~input_o $end
$var wire 1 2 A[1]~input_o $end
$var wire 1 3 B[0]~input_o $end
$var wire 1 4 A[0]~input_o $end
$var wire 1 5 inst1~7_combout $end
$var wire 1 6 inst1~6_combout $end
$var wire 1 7 inst1~8_combout $end
$var wire 1 8 A[4]~input_o $end
$var wire 1 9 inst1~3_combout $end
$var wire 1 : inst1~1_combout $end
$var wire 1 ; inst1~4_combout $end
$var wire 1 < inst1~0_combout $end
$var wire 1 = inst1~5_combout $end
$var wire 1 > inst1~9_combout $end
$upscope $end
$upscope $end
$enddefinitions $end
#0
$dumpvars
b0 !
b0 "
0#
0$
1%
x&
1'
1(
1)
0*
0+
0,
0-
0.
0/
10
01
02
03
04
05
06
07
08
09
0:
0;
0<
0=
0>
$end
#2500
b1 "
13
15
17
1>
1*
1#
#5000
b11 "
b10 "
03
11
#7500
b11 "
13
#10000
b111 "
b101 "
b100 "
03
01
1-
05
16
00
#12500
b101 "
13
15
#15000
b111 "
b110 "
03
11
#17500
b111 "
13
#20000
b1111 "
b1011 "
b1001 "
b1000 "
03
01
0-
1,
05
#22500
b1001 "
13
15
#25000
b1011 "
b1010 "
03
11
#27500
b1011 "
13
#30000
b1111 "
b1101 "
b1100 "
03
01
1-
05
#32500
b1101 "
13
15
#35000
b1111 "
b1110 "
03
11
#37500
b1111 "
13
#40000
b11111 "
b10111 "
b10011 "
b10001 "
b10000 "
03
01
0-
0,
1+
05
06
10
0>
0*
07
0#
#42500
b10001 "
13
15
17
#45000
b10011 "
b10010 "
03
11
#47500
b10011 "
13
#50000
b10111 "
b10101 "
b10100 "
03
01
1-
05
16
00
#52500
b10101 "
13
15
#55000
b10111 "
b10110 "
03
11
#57500
b10111 "
13
#60000
b11111 "
b11011 "
b11001 "
b11000 "
03
01
0-
1,
05
#62500
b11001 "
13
15
#65000
b11011 "
b11010 "
03
11
#67500
b11011 "
13
#70000
b11111 "
b11101 "
b11100 "
03
01
1-
05
#72500
b11101 "
13
15
#75000
b11111 "
b11110 "
03
11
#77500
b11111 "
13
#80000
b1111 "
b111 "
b11 "
b1 "
b0 "
03
01
0-
0,
0+
05
06
10
1>
1*
07
1#
0>
0*
0#
#82500
b1 "
13
15
17
1>
1*
1#
#85000
b11 "
b10 "
03
11
#87500
b11 "
13
#90000
b111 "
b101 "
b100 "
03
01
1-
05
16
00
#92500
b101 "
13
15
#95000
b111 "
b110 "
03
11
#97500
b111 "
13
#100000
b1111 "
b1011 "
b1001 "
b1000 "
03
01
0-
1,
05
#102500
b1001 "
13
15
#105000
b1011 "
b1010 "
03
11
#107500
b1011 "
13
#110000
b1111 "
b1101 "
b1100 "
03
01
1-
05
#112500
b1101 "
13
15
#115000
b1111 "
b1110 "
03
11
#117500
b1111 "
13
#120000
b11111 "
b10111 "
b10011 "
b10001 "
b10000 "
03
01
0-
0,
1+
05
06
10
0>
0*
07
0#
#122500
b10001 "
13
15
17
#125000
b10011 "
b10010 "
03
11
#127500
b10011 "
13
#130000
b10111 "
b10101 "
b10100 "
03
01
1-
05
16
00
#132500
b10101 "
13
15
#135000
b10111 "
b10110 "
03
11
#137500
b10111 "
13
#140000
b11111 "
b11011 "
b11001 "
b11000 "
03
01
0-
1,
05
#142500
b11001 "
13
15
#145000
b11011 "
b11010 "
03
11
#147500
b11011 "
13
#150000
b11111 "
b11101 "
b11100 "
03
01
1-
05
#152500
b11101 "
13
15
#155000
b11111 "
b11110 "
03
11
#157500
b11111 "
13
#160000
b1 !
b1111 "
b111 "
b11 "
b1 "
b0 "
03
01
0-
0,
0+
14
1:
05
06
10
19
1>
1*
1;
07
1#
0>
0*
0#
#162500
b1 "
13
0:
#165000
b11 "
b10 "
03
11
15
17
1>
1*
1#
#167500
b11 "
13
#170000
b111 "
b101 "
b100 "
03
01
1-
1:
05
16
00
#172500
b101 "
13
0:
#175000
b111 "
b110 "
03
11
15
#177500
b111 "
13
#180000
b1111 "
b1011 "
b1001 "
b1000 "
03
01
0-
1,
1:
05
#182500
b1001 "
13
0:
#185000
b1011 "
b1010 "
03
11
15
#187500
b1011 "
13
#190000
b1111 "
b1101 "
b1100 "
03
01
1-
1:
05
#192500
b1101 "
13
0:
#195000
b1111 "
b1110 "
03
11
15
#197500
b1111 "
13
#200000
b11111 "
b10111 "
b10011 "
b10001 "
b10000 "
03
01
0-
0,
1+
1:
05
06
10
0;
0>
0*
1;
07
0#
#202500
b10001 "
13
0:
0;
#205000
b10011 "
b10010 "
03
11
15
17
#207500
b10011 "
13
#210000
b10111 "
b10101 "
b10100 "
03
01
1-
1:
05
16
00
#212500
b10101 "
13
0:
#215000
b10111 "
b10110 "
03
11
15
#217500
b10111 "
13
#220000
b11111 "
b11011 "
b11001 "
b11000 "
03
01
0-
1,
1:
05
#222500
b11001 "
13
0:
#225000
b11011 "
b11010 "
03
11
15
#227500
b11011 "
13
#230000
b11111 "
b11101 "
b11100 "
03
01
1-
1:
05
#232500
b11101 "
13
0:
#235000
b11111 "
b11110 "
03
11
15
#237500
b11111 "
13
#240000
b1111 "
b111 "
b11 "
b1 "
b0 "
03
01
0-
0,
0+
1:
05
06
10
1;
1>
1*
07
1#
0>
0*
0#
#242500
b1 "
13
0:
#245000
b11 "
b10 "
03
11
15
17
1>
1*
1#
#247500
b11 "
13
#250000
b111 "
b101 "
b100 "
03
01
1-
1:
05
16
00
#252500
b101 "
13
0:
#255000
b111 "
b110 "
03
11
15
#257500
b111 "
13
#260000
b1111 "
b1011 "
b1001 "
b1000 "
03
01
0-
1,
1:
05
#262500
b1001 "
13
0:
#265000
b1011 "
b1010 "
03
11
15
#267500
b1011 "
13
#270000
b1111 "
b1101 "
b1100 "
03
01
1-
1:
05
#272500
b1101 "
13
0:
#275000
b1111 "
b1110 "
03
11
15
#277500
b1111 "
13
#280000
b11111 "
b10111 "
b10011 "
b10001 "
b10000 "
03
01
0-
0,
1+
1:
05
06
10
0;
0>
0*
1;
07
0#
#282500
b10001 "
13
0:
0;
#285000
b10011 "
b10010 "
03
11
15
17
#287500
b10011 "
13
#290000
b10111 "
b10101 "
b10100 "
03
01
1-
1:
05
16
00
#292500
b10101 "
13
0:
#295000
b10111 "
b10110 "
03
11
15
#297500
b10111 "
13
#300000
b11111 "
b11011 "
b11001 "
b11000 "
03
01
0-
1,
1:
05
#302500
b11001 "
13
0:
#305000
b11011 "
b11010 "
03
11
15
#307500
b11011 "
13
#310000
b11111 "
b11101 "
b11100 "
03
01
1-
1:
05
#312500
b11101 "
13
0:
#315000
b11111 "
b11110 "
03
11
15
#317500
b11111 "
13
#320000
b11 !
b10 !
b1111 "
b111 "
b11 "
b1 "
b0 "
03
01
0-
0,
0+
04
12
1:
05
06
10
1;
1>
1*
07
1#
0>
0*
0#
#322500
b1 "
13
#325000
b11 "
b10 "
03
11
0:
#327500
b11 "
13
15
17
1>
1*
1#
#330000
b111 "
b101 "
b100 "
03
01
1-
1:
05
16
00
#332500
b101 "
13
#335000
b111 "
b110 "
03
11
0:
#337500
b111 "
13
15
#340000
b1111 "
b1011 "
b1001 "
b1000 "
03
01
0-
1,
1:
05
#342500
b1001 "
13
#345000
b1011 "
b1010 "
03
11
0:
#347500
b1011 "
13
15
#350000
b1111 "
b1101 "
b1100 "
03
01
1-
1:
05
#352500
b1101 "
13
#355000
b1111 "
b1110 "
03
11
0:
#357500
b1111 "
13
15
#360000
b11111 "
b10111 "
b10011 "
b10001 "
b10000 "
03
01
0-
0,
1+
1:
05
06
10
0;
0>
0*
1;
07
0#
#362500
b10001 "
13
#365000
b10011 "
b10010 "
03
11
0:
0;
#367500
b10011 "
13
15
17
#370000
b10111 "
b10101 "
b10100 "
03
01
1-
1:
05
16
00
#372500
b10101 "
13
#375000
b10111 "
b10110 "
03
11
0:
#377500
b10111 "
13
15
#380000
b11111 "
b11011 "
b11001 "
b11000 "
03
01
0-
1,
1:
05
#382500
b11001 "
13
#385000
b11011 "
b11010 "
03
11
0:
#387500
b11011 "
13
15
#390000
b11111 "
b11101 "
b11100 "
03
01
1-
1:
05
#392500
b11101 "
13
#395000
b11111 "
b11110 "
03
11
0:
#397500
b11111 "
13
15
#400000
b1111 "
b111 "
b11 "
b1 "
b0 "
03
01
0-
0,
0+
1:
05
06
10
1;
1>
1*
07
1#
0>
0*
0#
#402500
b1 "
13
#405000
b11 "
b10 "
03
11
0:
#407500
b11 "
13
15
17
1>
1*
1#
#410000
b111 "
b101 "
b100 "
03
01
1-
1:
05
16
00
#412500
b101 "
13
#415000
b111 "
b110 "
03
11
0:
#417500
b111 "
13
15
#420000
b1111 "
b1011 "
b1001 "
b1000 "
03
01
0-
1,
1:
05
#422500
b1001 "
13
#425000
b1011 "
b1010 "
03
11
0:
#427500
b1011 "
13
15
#430000
b1111 "
b1101 "
b1100 "
03
01
1-
1:
05
#432500
b1101 "
13
#435000
b1111 "
b1110 "
03
11
0:
#437500
b1111 "
13
15
#440000
b11111 "
b10111 "
b10011 "
b10001 "
b10000 "
03
01
0-
0,
1+
1:
05
06
10
0;
0>
0*
1;
07
0#
#442500
b10001 "
13
#445000
b10011 "
b10010 "
03
11
0:
0;
#447500
b10011 "
13
15
17
#450000
b10111 "
b10101 "
b10100 "
03
01
1-
1:
05
16
00
#452500
b10101 "
13
#455000
b10111 "
b10110 "
03
11
0:
#457500
b10111 "
13
15
#460000
b11111 "
b11011 "
b11001 "
b11000 "
03
01
0-
1,
1:
05
#462500
b11001 "
13
#465000
b11011 "
b11010 "
03
11
0:
#467500
b11011 "
13
15
#470000
b11111 "
b11101 "
b11100 "
03
01
1-
1:
05
#472500
b11101 "
13
#475000
b11111 "
b11110 "
03
11
0:
#477500
b11111 "
13
15
#480000
b11 !
b1111 "
b111 "
b11 "
b1 "
b0 "
03
01
0-
0,
0+
14
1:
05
06
10
1;
1>
1*
07
1#
0>
0*
0#
#482500
b1 "
13
#485000
b11 "
b10 "
03
11
#487500
b11 "
13
0:
#490000
b111 "
b101 "
b100 "
03
01
1-
1:
16
00
17
1>
1*
1#
#492500
b101 "
13
#495000
b111 "
b110 "
03
11
#497500
b111 "
13
0:
#500000
b1111 "
b1011 "
b1001 "
b1000 "
03
01
0-
1,
1:
#502500
b1001 "
13
#505000
b1011 "
b1010 "
03
11
#507500
b1011 "
13
0:
#510000
b1111 "
b1101 "
b1100 "
03
01
1-
1:
#512500
b1101 "
13
#515000
b1111 "
b1110 "
03
11
#517500
b1111 "
13
0:
#520000
b11111 "
b10111 "
b10011 "
b10001 "
b10000 "
03
01
0-
0,
1+
1:
06
10
0;
0>
0*
1;
07
0#
#522500
b10001 "
13
#525000
b10011 "
b10010 "
03
11
#527500
b10011 "
13
0:
0;
#530000
b10111 "
b10101 "
b10100 "
03
01
1-
1:
16
00
17
#532500
b10101 "
13
#535000
b10111 "
b10110 "
03
11
#537500
b10111 "
13
0:
#540000
b11111 "
b11011 "
b11001 "
b11000 "
03
01
0-
1,
1:
#542500
b11001 "
13
#545000
b11011 "
b11010 "
03
11
#547500
b11011 "
13
0:
#550000
b11111 "
b11101 "
b11100 "
03
01
1-
1:
#552500
b11101 "
13
#555000
b11111 "
b11110 "
03
11
#557500
b11111 "
13
0:
#560000
b1111 "
b111 "
b11 "
b1 "
b0 "
03
01
0-
0,
0+
1:
06
10
1;
1>
1*
07
1#
0>
0*
0#
#562500
b1 "
13
#565000
b11 "
b10 "
03
11
#567500
b11 "
13
0:
#570000
b111 "
b101 "
b100 "
03
01
1-
1:
16
00
17
1>
1*
1#
#572500
b101 "
13
#575000
b111 "
b110 "
03
11
#577500
b111 "
13
0:
#580000
b1111 "
b1011 "
b1001 "
b1000 "
03
01
0-
1,
1:
#582500
b1001 "
13
#585000
b1011 "
b1010 "
03
11
#587500
b1011 "
13
0:
#590000
b1111 "
b1101 "
b1100 "
03
01
1-
1:
#592500
b1101 "
13
#595000
b1111 "
b1110 "
03
11
#597500
b1111 "
13
0:
#600000
b11111 "
b10111 "
b10011 "
b10001 "
b10000 "
03
01
0-
0,
1+
1:
06
10
0;
0>
0*
1;
07
0#
#602500
b10001 "
13
#605000
b10011 "
b10010 "
03
11
#607500
b10011 "
13
0:
0;
#610000
b10111 "
b10101 "
b10100 "
03
01
1-
1:
16
00
17
#612500
b10101 "
13
#615000
b10111 "
b10110 "
03
11
#617500
b10111 "
13
0:
#620000
b11111 "
b11011 "
b11001 "
b11000 "
03
01
0-
1,
1:
#622500
b11001 "
13
#625000
b11011 "
b11010 "
03
11
#627500
b11011 "
13
0:
#630000
b11111 "
b11101 "
b11100 "
03
01
1-
1:
#632500
b11101 "
13
#635000
b11111 "
b11110 "
03
11
#637500
b11111 "
13
0:
#640000
b111 !
b101 !
b100 !
b1111 "
b111 "
b11 "
b1 "
b0 "
03
01
0-
0,
0+
04
02
1/
1<
06
1;
1>
1*
07
1#
0>
0*
0#
#642500
b1 "
13
15
#645000
b11 "
b10 "
03
11
#647500
b11 "
13
#650000
b111 "
b101 "
b100 "
03
01
1-
05
0<
10
#652500
b101 "
13
15
17
1>
1*
1#
#655000
b111 "
b110 "
03
11
#657500
b111 "
13
#660000
b1111 "
b1011 "
b1001 "
b1000 "
03
01
0-
1,
05
16
00
#662500
b1001 "
13
15
#665000
b1011 "
b1010 "
03
11
#667500
b1011 "
13
#670000
b1111 "
b1101 "
b1100 "
03
01
1-
05
#672500
b1101 "
13
15
#675000
b1111 "
b1110 "
03
11
#677500
b1111 "
13
#680000
b11111 "
b10111 "
b10011 "
b10001 "
b10000 "
03
01
0-
0,
1+
05
1<
06
0;
0>
0*
07
0#
#682500
b10001 "
13
15
#685000
b10011 "
b10010 "
03
11
#687500
b10011 "
13
#690000
b10111 "
b10101 "
b10100 "
03
01
1-
05
0<
10
#692500
b10101 "
13
15
17
#695000
b10111 "
b10110 "
03
11
#697500
b10111 "
13
#700000
b11111 "
b11011 "
b11001 "
b11000 "
03
01
0-
1,
05
16
00
#702500
b11001 "
13
15
#705000
b11011 "
b11010 "
03
11
#707500
b11011 "
13
#710000
b11111 "
b11101 "
b11100 "
03
01
1-
05
#712500
b11101 "
13
15
#715000
b11111 "
b11110 "
03
11
#717500
b11111 "
13
#720000
b1111 "
b111 "
b11 "
b1 "
b0 "
03
01
0-
0,
0+
05
1<
06
1;
1>
1*
07
1#
0>
0*
0#
#722500
b1 "
13
15
#725000
b11 "
b10 "
03
11
#727500
b11 "
13
#730000
b111 "
b101 "
b100 "
03
01
1-
05
0<
10
#732500
b101 "
13
15
17
1>
1*
1#
#735000
b111 "
b110 "
03
11
#737500
b111 "
13
#740000
b1111 "
b1011 "
b1001 "
b1000 "
03
01
0-
1,
05
16
00
#742500
b1001 "
13
15
#745000
b1011 "
b1010 "
03
11
#747500
b1011 "
13
#750000
b1111 "
b1101 "
b1100 "
03
01
1-
05
#752500
b1101 "
13
15
#755000
b1111 "
b1110 "
03
11
#757500
b1111 "
13
#760000
b11111 "
b10111 "
b10011 "
b10001 "
b10000 "
03
01
0-
0,
1+
05
1<
06
0;
0>
0*
07
0#
#762500
b10001 "
13
15
#765000
b10011 "
b10010 "
03
11
#767500
b10011 "
13
#770000
b10111 "
b10101 "
b10100 "
03
01
1-
05
0<
10
#772500
b10101 "
13
15
17
#775000
b10111 "
b10110 "
03
11
#777500
b10111 "
13
#780000
b11111 "
b11011 "
b11001 "
b11000 "
03
01
0-
1,
05
16
00
#782500
b11001 "
13
15
#785000
b11011 "
b11010 "
03
11
#787500
b11011 "
13
#790000
b11111 "
b11101 "
b11100 "
03
01
1-
05
#792500
b11101 "
13
15
#795000
b11111 "
b11110 "
03
11
#797500
b11111 "
13
#800000
b101 !
b1111 "
b111 "
b11 "
b1 "
b0 "
03
01
0-
0,
0+
14
1:
05
1<
06
1;
1>
1*
07
1#
0>
0*
0#
#802500
b1 "
13
0:
#805000
b11 "
b10 "
03
11
15
#807500
b11 "
13
#810000
b111 "
b101 "
b100 "
03
01
1-
1:
05
0<
10
#812500
b101 "
13
0:
#815000
b111 "
b110 "
03
11
15
17
1>
1*
1#
#817500
b111 "
13
#820000
b1111 "
b1011 "
b1001 "
b1000 "
03
01
0-
1,
1:
05
16
00
#822500
b1001 "
13
0:
#825000
b1011 "
b1010 "
03
11
15
#827500
b1011 "
13
#830000
b1111 "
b1101 "
b1100 "
03
01
1-
1:
05
#832500
b1101 "
13
0:
#835000
b1111 "
b1110 "
03
11
15
#837500
b1111 "
13
#840000
b11111 "
b10111 "
b10011 "
b10001 "
b10000 "
03
01
0-
0,
1+
1:
05
1<
06
0;
0>
0*
07
0#
#842500
b10001 "
13
0:
#845000
b10011 "
b10010 "
03
11
15
#847500
b10011 "
13
#850000
b10111 "
b10101 "
b10100 "
03
01
1-
1:
05
0<
10
1;
#852500
b10101 "
13
0:
0;
#855000
b10111 "
b10110 "
03
11
15
17
#857500
b10111 "
13
#860000
b11111 "
b11011 "
b11001 "
b11000 "
03
01
0-
1,
1:
05
16
00
#862500
b11001 "
13
0:
#865000
b11011 "
b11010 "
03
11
15
#867500
b11011 "
13
#870000
b11111 "
b11101 "
b11100 "
03
01
1-
1:
05
#872500
b11101 "
13
0:
#875000
b11111 "
b11110 "
03
11
15
#877500
b11111 "
13
#880000
b1111 "
b111 "
b11 "
b1 "
b0 "
03
01
0-
0,
0+
1:
05
1<
06
1;
1>
1*
07
1#
0>
0*
0#
#882500
b1 "
13
0:
#885000
b11 "
b10 "
03
11
15
#887500
b11 "
13
#890000
b111 "
b101 "
b100 "
03
01
1-
1:
05
0<
10
#892500
b101 "
13
0:
#895000
b111 "
b110 "
03
11
15
17
1>
1*
1#
#897500
b111 "
13
#900000
b1111 "
b1011 "
b1001 "
b1000 "
03
01
0-
1,
1:
05
16
00
#902500
b1001 "
13
0:
#905000
b1011 "
b1010 "
03
11
15
#907500
b1011 "
13
#910000
b1111 "
b1101 "
b1100 "
03
01
1-
1:
05
#912500
b1101 "
13
0:
#915000
b1111 "
b1110 "
03
11
15
#917500
b1111 "
13
#920000
b11111 "
b10111 "
b10011 "
b10001 "
b10000 "
03
01
0-
0,
1+
1:
05
1<
06
0;
0>
0*
07
0#
#922500
b10001 "
13
0:
#925000
b10011 "
b10010 "
03
11
15
#927500
b10011 "
13
#930000
b10111 "
b10101 "
b10100 "
03
01
1-
1:
05
0<
10
1;
#932500
b10101 "
13
0:
0;
#935000
b10111 "
b10110 "
03
11
15
17
#937500
b10111 "
13
#940000
b11111 "
b11011 "
b11001 "
b11000 "
03
01
0-
1,
1:
05
16
00
#942500
b11001 "
13
0:
#945000
b11011 "
b11010 "
03
11
15
#947500
b11011 "
13
#950000
b11111 "
b11101 "
b11100 "
03
01
1-
1:
05
#952500
b11101 "
13
0:
#955000
b11111 "
b11110 "
03
11
15
#957500
b11111 "
13
#960000
b111 !
b110 !
b1111 "
b111 "
b11 "
b1 "
b0 "
03
01
0-
0,
0+
04
12
1:
05
1<
06
1;
1>
1*
07
1#
0>
0*
0#
#962500
b1 "
13
#965000
b11 "
b10 "
03
11
0:
#967500
b11 "
13
15
#970000
b111 "
b101 "
b100 "
03
01
1-
1:
05
0<
10
#972500
b101 "
13
#975000
b111 "
b110 "
03
11
0:
#977500
b111 "
13
15
17
1>
1*
1#
#980000
b1111 "
b1011 "
b1001 "
b1000 "
03
01
0-
1,
1:
05
16
00
#982500
b1001 "
13
#985000
b1011 "
b1010 "
03
11
0:
#987500
b1011 "
13
15
#990000
b1111 "
b1101 "
b1100 "
03
01
1-
1:
05
#992500
b1101 "
13
#995000
b1111 "
b1110 "
03
11
0:
#997500
b1111 "
13
15
