ProjetoSD1/Circuitos/CompMagnitude/simulation/qsim/ProjetoSD1.msim.vcd
$comment
	File created using the following command:
		vcd file ProjetoSD1.msim.vcd -direction
$end
$date
	Wed Jun 25 22:11:01 2025
$end
$version
	ModelSim Version 2020.1
$end
$timescale
	1ps
$end

$scope module M_A_vlg_vec_tst $end
$var reg 5 ! A [4:0] $end
$var reg 5 " B [4:0] $end
$var wire 1 # A_MAIORQUE_B $end

$scope module i1 $end
$var wire 1 $ gnd $end
$var wire 1 % vcc $end
$var wire 1 & unknown $end
$var tri1 1 ' devclrn $end
$var tri1 1 ( devpor $end
$var tri1 1 ) devoe $end
$var wire 1 * A_MAIORQUE_B~output_o $end
$var wire 1 + B[3]~input_o $end
$var wire 1 , B[2]~input_o $end
$var wire 1 - A[2]~input_o $end
$var wire 1 . A[3]~input_o $end
$var wire 1 / inst~2_combout $end
$var wire 1 0 A[0]~input_o $end
$var wire 1 1 B[1]~input_o $end
$var wire 1 2 B[0]~input_o $end
$var wire 1 3 A[1]~input_o $end
$var wire 1 4 inst~1_combout $end
$var wire 1 5 inst~3_combout $end
$var wire 1 6 B[4]~input_o $end
$var wire 1 7 inst~4_combout $end
$var wire 1 8 A[4]~input_o $end
$var wire 1 9 inst~0_combout $end
$var wire 1 : inst~5_combout $end
$var wire 1 ; inst~6_combout $end
$var wire 1 < inst~7_combout $end
$var wire 1 = inst~8_combout $end
$var wire 1 > inst~9_combout $end
$upscope $end
$upscope $end
$enddefinitions $end
#0
$dumpvars
b0 !
b0 "
0#
0$
1%
x&
1'
1(
1)
0*
0+
0,
0-
0.
1/
00
01
02
03
04
05
06
07
08
09
0:
0;
0<
0=
0>
$end
#2500
b1 "
12
1<
1=
#5000
b11 "
b10 "
02
11
#7500
b11 "
12
#10000
b111 "
b101 "
b100 "
02
01
1,
0<
1;
0/
#12500
b101 "
12
1<
#15000
b111 "
b110 "
02
11
#17500
b111 "
12
#20000
b1111 "
b1011 "
b1001 "
b1000 "
02
01
0,
1+
0<
#22500
b1001 "
12
1<
#25000
b1011 "
b1010 "
02
11
#27500
b1011 "
12
#30000
b1111 "
b1101 "
b1100 "
02
01
1,
0<
#32500
b1101 "
12
1<
#35000
b1111 "
b1110 "
02
11
#37500
b1111 "
12
#40000
b11111 "
b10111 "
b10011 "
b10001 "
b10000 "
02
01
0,
0+
16
0<
0;
1/
0=
#42500
b10001 "
12
1<
1=
#45000
b10011 "
b10010 "
02
11
#47500
b10011 "
12
#50000
b10111 "
b10101 "
b10100 "
02
01
1,
0<
1;
0/
#52500
b10101 "
12
1<
#55000
b10111 "
b10110 "
02
11
#57500
b10111 "
12
#60000
b11111 "
b11011 "
b11001 "
b11000 "
02
01
0,
1+
0<
#62500
b11001 "
12
1<
#65000
b11011 "
b11010 "
02
11
#67500
b11011 "
12
#70000
b11111 "
b11101 "
b11100 "
02
01
1,
0<
#72500
b11101 "
12
1<
#75000
b11111 "
b11110 "
02
11
#77500
b11111 "
12
#80000
b1111 "
b111 "
b11 "
b1 "
b0 "
02
01
0,
0+
06
0<
0;
1/
0=
#82500
b1 "
12
1<
1=
#85000
b11 "
b10 "
02
11
#87500
b11 "
12
#90000
b111 "
b101 "
b100 "
02
01
1,
0<
1;
0/
#92500
b101 "
12
1<
#95000
b111 "
b110 "
02
11
#97500
b111 "
12
#100000
b1111 "
b1011 "
b1001 "
b1000 "
02
01
0,
1+
0<
#102500
b1001 "
12
1<
#105000
b1011 "
b1010 "
02
11
#107500
b1011 "
12
#110000
b1111 "
b1101 "
b1100 "
02
01
1,
0<
#112500
b1101 "
12
1<
#115000
b1111 "
b1110 "
02
11
#117500
b1111 "
12
#120000
b11111 "
b10111 "
b10011 "
b10001 "
b10000 "
02
01
0,
0+
16
0<
0;
1/
0=
#122500
b10001 "
12
1<
1=
#125000
b10011 "
b10010 "
02
11
#127500
b10011 "
12
#130000
b10111 "
b10101 "
b10100 "
02
01
1,
0<
1;
0/
#132500
b10101 "
12
1<
#135000
b10111 "
b10110 "
02
11
#137500
b10111 "
12
#140000
b11111 "
b11011 "
b11001 "
b11000 "
02
01
0,
1+
0<
#142500
b11001 "
12
1<
#145000
b11011 "
b11010 "
02
11
#147500
b11011 "
12
#150000
b11111 "
b11101 "
b11100 "
02
01
1,
0<
#152500
b11101 "
12
1<
#155000
b11111 "
b11110 "
02
11
#157500
b11111 "
12
#160000
b1 !
b1111 "
b111 "
b11 "
b1 "
b0 "
02
01
0,
0+
06
10
0<
14
0;
1/
15
0=
17
1:
1>
1*
1#
#162500
b1 "
12
04
07
0:
0>
0*
0#
#165000
b11 "
b10 "
02
11
1<
1=
#167500
b11 "
12
#170000
b111 "
b101 "
b100 "
02
01
1,
0<
14
1;
0/
#172500
b101 "
12
04
#175000
b111 "
b110 "
02
11
1<
#177500
b111 "
12
#180000
b1111 "
b1011 "
b1001 "
b1000 "
02
01
0,
1+
0<
14
#182500
b1001 "
12
04
#185000
b1011 "
b1010 "
02
11
1<
#187500
b1011 "
12
#190000
b1111 "
b1101 "
b1100 "
02
01
1,
0<
14
#192500
b1101 "
12
04
#195000
b1111 "
b1110 "
02
11
1<
#197500
b1111 "
12
#200000
b11111 "
b10111 "
b10011 "
b10001 "
b10000 "
02
01
0,
0+
16
0<
14
0;
1/
17
0=
1:
1>
1*
1#
#202500
b10001 "
12
04
#205000
b10011 "
b10010 "
02
11
1<
1=
#207500
b10011 "
12
#210000
b10111 "
b10101 "
b10100 "
02
01
1,
0<
14
1;
0/
#212500
b10101 "
12
04
#215000
b10111 "
b10110 "
02
11
1<
#217500
b10111 "
12
#220000
b11111 "
b11011 "
b11001 "
b11000 "
02
01
0,
1+
0<
14
#222500
b11001 "
12
04
#225000
b11011 "
b11010 "
02
11
1<
#227500
b11011 "
12
#230000
b11111 "
b11101 "
b11100 "
02
01
1,
0<
14
#232500
b11101 "
12
04
#235000
b11111 "
b11110 "
02
11
1<
#237500
b11111 "
12
#240000
b1111 "
b111 "
b11 "
b1 "
b0 "
02
01
0,
0+
06
0<
14
0;
1/
07
0=
17
0:
1:
0>
0*
0#
1>
1*
1#
#242500
b1 "
12
04
07
0:
0>
0*
0#
#245000
b11 "
b10 "
02
11
1<
1=
#247500
b11 "
12
#250000
b111 "
b101 "
b100 "
02
01
1,
0<
14
1;
0/
#252500
b101 "
12
04
#255000
b111 "
b110 "
02
11
1<
#257500
b111 "
12
#260000
b1111 "
b1011 "
b1001 "
b1000 "
02
01
0,
1+
0<
14
#262500
b1001 "
12
04
#265000
b1011 "
b1010 "
02
11
1<
#267500
b1011 "
12
#270000
b1111 "
b1101 "
b1100 "
02
01
1,
0<
14
#272500
b1101 "
12
04
#275000
b1111 "
b1110 "
02
11
1<
#277500
b1111 "
12
#280000
b11111 "
b10111 "
b10011 "
b10001 "
b10000 "
02
01
0,
0+
16
0<
14
0;
1/
17
0=
1:
1>
1*
1#
#282500
b10001 "
12
04
#285000
b10011 "
b10010 "
02
11
1<
1=
#287500
b10011 "
12
#290000
b10111 "
b10101 "
b10100 "
02
01
1,
0<
14
1;
0/
#292500
b10101 "
12
04
#295000
b10111 "
b10110 "
02
11
1<
#297500
b10111 "
12
#300000
b11111 "
b11011 "
b11001 "
b11000 "
02
01
0,
1+
0<
14
#302500
b11001 "
12
04
#305000
b11011 "
b11010 "
02
11
1<
#307500
b11011 "
12
#310000
b11111 "
b11101 "
b11100 "
02
01
1,
0<
14
#312500
b11101 "
12
04
#315000
b11111 "
b11110 "
02
11
1<
#317500
b11111 "
12
#320000
b11 !
b10 !
b1111 "
b111 "
b11 "
b1 "
b0 "
02
01
0,
0+
06
00
13
0<
14
0;
1/
07
0=
17
0:
1:
0>
0*
0#
1>
1*
1#
#322500
b1 "
12
#325000
b11 "
b10 "
02
11
04
07
0:
0>
0*
0#
#327500
b11 "
12
1<
1=
#330000
b111 "
b101 "
b100 "
02
01
1,
0<
14
1;
0/
#332500
b101 "
12
#335000
b111 "
b110 "
02
11
04
#337500
b111 "
12
1<
#340000
b1111 "
b1011 "
b1001 "
b1000 "
02
01
0,
1+
0<
14
#342500
b1001 "
12
#345000
b1011 "
b1010 "
02
11
04
#347500
b1011 "
12
1<
#350000
b1111 "
b1101 "
b1100 "
02
01
1,
0<
14
#352500
b1101 "
12
#355000
b1111 "
b1110 "
02
11
04
#357500
b1111 "
12
1<
#360000
b11111 "
b10111 "
b10011 "
b10001 "
b10000 "
02
01
0,
0+
16
0<
14
0;
1/
17
0=
1:
1>
1*
1#
#362500
b10001 "
12
#365000
b10011 "
b10010 "
02
11
04
#367500
b10011 "
12
1<
1=
#370000
b10111 "
b10101 "
b10100 "
02
01
1,
0<
14
1;
0/
#372500
b10101 "
12
#375000
b10111 "
b10110 "
02
11
04
#377500
b10111 "
12
1<
#380000
b11111 "
b11011 "
b11001 "
b11000 "
02
01
0,
1+
0<
14
#382500
b11001 "
12
#385000
b11011 "
b11010 "
02
11
04
#387500
b11011 "
12
1<
#390000
b11111 "
b11101 "
b11100 "
02
01
1,
0<
14
#392500
b11101 "
12
#395000
b11111 "
b11110 "
02
11
04
#397500
b11111 "
12
1<
#400000
b1111 "
b111 "
b11 "
b1 "
b0 "
02
01
0,
0+
06
0<
14
0;
1/
07
0=
17
0:
1:
0>
0*
0#
1>
1*
1#
#402500
b1 "
12
#405000
b11 "
b10 "
02
11
04
07
0:
0>
0*
0#
#407500
b11 "
12
1<
1=
#410000
b111 "
b101 "
b100 "
02
01
1,
0<
14
1;
0/
#412500
b101 "
12
#415000
b111 "
b110 "
02
11
04
#417500
b111 "
12
1<
#420000
b1111 "
b1011 "
b1001 "
b1000 "
02
01
0,
1+
0<
14
#422500
b1001 "
12
#425000
b1011 "
b1010 "
02
11
04
#427500
b1011 "
12
1<
#430000
b1111 "
b1101 "
b1100 "
02
01
1,
0<
14
#432500
b1101 "
12
#435000
b1111 "
b1110 "
02
11
04
#437500
b1111 "
12
1<
#440000
b11111 "
b10111 "
b10011 "
b10001 "
b10000 "
02
01
0,
0+
16
0<
14
0;
1/
17
0=
1:
1>
1*
1#
#442500
b10001 "
12
#445000
b10011 "
b10010 "
02
11
04
#447500
b10011 "
12
1<
1=
#450000
b10111 "
b10101 "
b10100 "
02
01
1,
0<
14
1;
0/
#452500
b10101 "
12
#455000
b10111 "
b10110 "
02
11
04
#457500
b10111 "
12
1<
#460000
b11111 "
b11011 "
b11001 "
b11000 "
02
01
0,
1+
0<
14
#462500
b11001 "
12
#465000
b11011 "
b11010 "
02
11
04
#467500
b11011 "
12
1<
#470000
b11111 "
b11101 "
b11100 "
02
01
1,
0<
14
#472500
b11101 "
12
#475000
b11111 "
b11110 "
02
11
04
#477500
b11111 "
12
1<
#480000
b11 !
b1111 "
b111 "
b11 "
b1 "
b0 "
02
01
0,
0+
06
10
0<
14
0;
1/
07
0=
17
0:
1:
0>
0*
0#
1>
1*
1#
#482500
b1 "
12
#485000
b11 "
b10 "
02
11
#487500
b11 "
12
04
07
0:
0>
0*
0#
#490000
b111 "
b101 "
b100 "
02
01
1,
14
1;
0/
1=
#492500
b101 "
12
#495000
b111 "
b110 "
02
11
#497500
b111 "
12
04
#500000
b1111 "
b1011 "
b1001 "
b1000 "
02
01
0,
1+
14
#502500
b1001 "
12
#505000
b1011 "
b1010 "
02
11
#507500
b1011 "
12
04
#510000
b1111 "
b1101 "
b1100 "
02
01
1,
14
#512500
b1101 "
12
#515000
b1111 "
b1110 "
02
11
#517500
b1111 "
12
04
#520000
b11111 "
b10111 "
b10011 "
b10001 "
b10000 "
02
01
0,
0+
16
14
0;
1/
17
0=
1:
1>
1*
1#
#522500
b10001 "
12
#525000
b10011 "
b10010 "
02
11
#527500
b10011 "
12
04
#530000
b10111 "
b10101 "
b10100 "
02
01
1,
14
1;
0/
1=
#532500
b10101 "
12
#535000
b10111 "
b10110 "
02
11
#537500
b10111 "
12
04
#540000
b11111 "
b11011 "
b11001 "
b11000 "
02
01
0,
1+
14
#542500
b11001 "
12
#545000
b11011 "
b11010 "
02
11
#547500
b11011 "
12
04
#550000
b11111 "
b11101 "
b11100 "
02
01
1,
14
#552500
b11101 "
12
#555000
b11111 "
b11110 "
02
11
#557500
b11111 "
12
04
#560000
b1111 "
b111 "
b11 "
b1 "
b0 "
02
01
0,
0+
06
14
0;
1/
07
17
0=
0:
1:
0>
0*
0#
1>
1*
1#
#562500
b1 "
12
#565000
b11 "
b10 "
02
11
#567500
b11 "
12
04
07
0:
0>
0*
0#
#570000
b111 "
b101 "
b100 "
02
01
1,
14
1;
0/
1=
#572500
b101 "
12
#575000
b111 "
b110 "
02
11
#577500
b111 "
12
04
#580000
b1111 "
b1011 "
b1001 "
b1000 "
02
01
0,
1+
14
#582500
b1001 "
12
#585000
b1011 "
b1010 "
02
11
#587500
b1011 "
12
04
#590000
b1111 "
b1101 "
b1100 "
02
01
1,
14
#592500
b1101 "
12
#595000
b1111 "
b1110 "
02
11
#597500
b1111 "
12
04
#600000
b11111 "
b10111 "
b10011 "
b10001 "
b10000 "
02
01
0,
0+
16
14
0;
1/
17
0=
1:
1>
1*
1#
#602500
b10001 "
12
#605000
b10011 "
b10010 "
02
11
#607500
b10011 "
12
04
#610000
b10111 "
b10101 "
b10100 "
02
01
1,
14
1;
0/
1=
#612500
b10101 "
12
#615000
b10111 "
b10110 "
02
11
#617500
b10111 "
12
04
#620000
b11111 "
b11011 "
b11001 "
b11000 "
02
01
0,
1+
14
#622500
b11001 "
12
#625000
b11011 "
b11010 "
02
11
#627500
b11011 "
12
04
#630000
b11111 "
b11101 "
b11100 "
02
01
1,
14
#632500
b11101 "
12
#635000
b11111 "
b11110 "
02
11
#637500
b11111 "
12
04
#640000
b111 !
b101 !
b100 !
b1111 "
b111 "
b11 "
b1 "
b0 "
02
01
0,
0+
06
00
03
1-
0;
19
07
0=
#642500
b1 "
12
1<
#645000
b11 "
b10 "
02
11
#647500
b11 "
12
#650000
b111 "
b101 "
b100 "
02
01
1,
0<
09
1/
0:
0>
0*
0#
#652500
b101 "
12
1<
1=
#655000
b111 "
b110 "
02
11
#657500
b111 "
12
#660000
b1111 "
b1011 "
b1001 "
b1000 "
02
01
0,
1+
0<
1;
0/
#662500
b1001 "
12
1<
#665000
b1011 "
b1010 "
02
11
#667500
b1011 "
12
#670000
b1111 "
b1101 "
b1100 "
02
01
1,
0<
#672500
b1101 "
12
1<
#675000
b1111 "
b1110 "
02
11
#677500
b1111 "
12
#680000
b11111 "
b10111 "
b10011 "
b10001 "
b10000 "
02
01
0,
0+
16
0<
0;
19
17
0=
1:
1>
1*
1#
#682500
b10001 "
12
1<
#685000
b10011 "
b10010 "
02
11
#687500
b10011 "
12
#690000
b10111 "
b10101 "
b10100 "
02
01
1,
0<
09
1/
#692500
b10101 "
12
1<
1=
#695000
b10111 "
b10110 "
02
11
#697500
b10111 "
12
#700000
b11111 "
b11011 "
b11001 "
b11000 "
02
01
0,
1+
0<
1;
0/
#702500
b11001 "
12
1<
#705000
b11011 "
b11010 "
02
11
#707500
b11011 "
12
#710000
b11111 "
b11101 "
b11100 "
02
01
1,
0<
#712500
b11101 "
12
1<
#715000
b11111 "
b11110 "
02
11
#717500
b11111 "
12
#720000
b1111 "
b111 "
b11 "
b1 "
b0 "
02
01
0,
0+
06
0<
0;
19
07
0=
#722500
b1 "
12
1<
#725000
b11 "
b10 "
02
11
#727500
b11 "
12
#730000
b111 "
b101 "
b100 "
02
01
1,
0<
09
1/
0:
0>
0*
0#
#732500
b101 "
12
1<
1=
#735000
b111 "
b110 "
02
11
#737500
b111 "
12
#740000
b1111 "
b1011 "
b1001 "
b1000 "
02
01
0,
1+
0<
1;
0/
#742500
b1001 "
12
1<
#745000
b1011 "
b1010 "
02
11
#747500
b1011 "
12
#750000
b1111 "
b1101 "
b1100 "
02
01
1,
0<
#752500
b1101 "
12
1<
#755000
b1111 "
b1110 "
02
11
#757500
b1111 "
12
#760000
b11111 "
b10111 "
b10011 "
b10001 "
b10000 "
02
01
0,
0+
16
0<
0;
19
17
0=
1:
1>
1*
1#
#762500
b10001 "
12
1<
#765000
b10011 "
b10010 "
02
11
#767500
b10011 "
12
#770000
b10111 "
b10101 "
b10100 "
02
01
1,
0<
09
1/
#772500
b10101 "
12
1<
1=
#775000
b10111 "
b10110 "
02
11
#777500
b10111 "
12
#780000
b11111 "
b11011 "
b11001 "
b11000 "
02
01
0,
1+
0<
1;
0/
#782500
b11001 "
12
1<
#785000
b11011 "
b11010 "
02
11
#787500
b11011 "
12
#790000
b11111 "
b11101 "
b11100 "
02
01
1,
0<
#792500
b11101 "
12
1<
#795000
b11111 "
b11110 "
02
11
#797500
b11111 "
12
#800000
b101 !
b1111 "
b111 "
b11 "
b1 "
b0 "
02
01
0,
0+
06
10
0<
14
0;
19
07
0=
#802500
b1 "
12
04
#805000
b11 "
b10 "
02
11
1<
#807500
b11 "
12
#810000
b111 "
b101 "
b100 "
02
01
1,
0<
14
09
1/
17
0:
1:
0>
0*
0#
1>
1*
1#
#812500
b101 "
12
04
07
0:
0>
0*
0#
#815000
b111 "
b110 "
02
11
1<
1=
#817500
b111 "
12
#820000
b1111 "
b1011 "
b1001 "
b1000 "
02
01
0,
1+
0<
14
1;
0/
#822500
b1001 "
12
04
#825000
b1011 "
b1010 "
02
11
1<
#827500
b1011 "
12
#830000
b1111 "
b1101 "
b1100 "
02
01
1,
0<
14
#832500
b1101 "
12
04
#835000
b1111 "
b1110 "
02
11
1<
#837500
b1111 "
12
#840000
b11111 "
b10111 "
b10011 "
b10001 "
b10000 "
02
01
0,
0+
16
0<
14
0;
19
17
0=
1:
1>
1*
1#
#842500
b10001 "
12
04
#845000
b10011 "
b10010 "
02
11
1<
#847500
b10011 "
12
#850000
b10111 "
b10101 "
b10100 "
02
01
1,
0<
14
09
1/
#852500
b10101 "
12
04
#855000
b10111 "
b10110 "
02
11
1<
1=
#857500
b10111 "
12
#860000
b11111 "
b11011 "
b11001 "
b11000 "
02
01
0,
1+
0<
14
1;
0/
#862500
b11001 "
12
04
#865000
b11011 "
b11010 "
02
11
1<
#867500
b11011 "
12
#870000
b11111 "
b11101 "
b11100 "
02
01
1,
0<
14
#872500
b11101 "
12
04
#875000
b11111 "
b11110 "
02
11
1<
#877500
b11111 "
12
#880000
b1111 "
b111 "
b11 "
b1 "
b0 "
02
01
0,
0+
06
0<
14
0;
19
07
0=
#882500
b1 "
12
04
#885000
b11 "
b10 "
02
11
1<
#887500
b11 "
12
#890000
b111 "
b101 "
b100 "
02
01
1,
0<
14
09
1/
17
0:
1:
0>
0*
0#
1>
1*
1#
#892500
b101 "
12
04
07
0:
0>
0*
0#
#895000
b111 "
b110 "
02
11
1<
1=
#897500
b111 "
12
#900000
b1111 "
b1011 "
b1001 "
b1000 "
02
01
0,
1+
0<
14
1;
0/
#902500
b1001 "
12
04
#905000
b1011 "
b1010 "
02
11
1<
#907500
b1011 "
12
#910000
b1111 "
b1101 "
b1100 "
02
01
1,
0<
14
#912500
b1101 "
12
04
#915000
b1111 "
b1110 "
02
11
1<
#917500
b1111 "
12
#920000
b11111 "
b10111 "
b10011 "
b10001 "
b10000 "
02
01
0,
0+
16
0<
14
0;
19
17
0=
1:
1>
1*
1#
#922500
b10001 "
12
04
#925000
b10011 "
b10010 "
02
11
1<
#927500
b10011 "
12
#930000
b10111 "
b10101 "
b10100 "
02
01
1,
0<
14
09
1/
#932500
b10101 "
12
04
#935000
b10111 "
b10110 "
02
11
1<
1=
#937500
b10111 "
12
#940000
b11111 "
b11011 "
b11001 "
b11000 "
02
01
0,
1+
0<
14
1;
0/
#942500
b11001 "
12
04
#945000
b11011 "
b11010 "
02
11
1<
#947500
b11011 "
12
#950000
b11111 "
b11101 "
b11100 "
02
01
1,
0<
14
#952500
b11101 "
12
04
#955000
b11111 "
b11110 "
02
11
1<
#957500
b11111 "
12
#960000
b111 !
b110 !
b1111 "
b111 "
b11 "
b1 "
b0 "
02
01
0,
0+
06
00
13
0<
14
0;
19
07
0=
#962500
b1 "
12
#965000
b11 "
b10 "
02
11
04
#967500
b11 "
12
1<
#970000
b111 "
b101 "
b100 "
02
01
1,
0<
14
09
1/
17
0:
1:
0>
0*
0#
1>
1*
1#
#972500
b101 "
12
#975000
b111 "
b110 "
02
11
04
07
0:
0>
0*
0#
#977500
b111 "
12
1<
1=
#980000
b1111 "
b1011 "
b1001 "
b1000 "
02
01
0,
1+
0<
14
1;
0/
#982500
b1001 "
12
#985000
b1011 "
b1010 "
02
11
04
#987500
b1011 "
12
1<
#990000
b1111 "
b1101 "
b1100 "
02
01
1,
0<
14
#992500
b1101 "
12
#995000
b1111 "
b1110 "
02
11
04
#997500
b1111 "
12
1<
